<svg width="50" height="50" viewBox="0 0 50 50" fill="none" xmlns="http://www.w3.org/2000/svg">
<path d="M23.2877 0.0551281C23.1315 0.0746593 22.5749 0.143019 22.067 0.201612C18.4342 0.602003 14.7038 2.10591 11.5104 4.44966C10.4459 5.23091 10.2604 5.602 10.6022 6.2563C10.778 6.60786 11.3346 6.87153 11.7057 6.78364C11.8424 6.74458 12.2624 6.49067 12.6432 6.20747C15.4069 4.11763 18.6491 2.77974 22.1354 2.28169C23.7174 2.05708 26.3444 2.05708 27.8776 2.28169C32.3795 2.95552 36.1979 4.83052 39.4401 7.95552C40.7096 9.18599 41.4518 10.0747 42.3795 11.4711C43.0143 12.4379 44.0397 14.3325 44.0397 14.5376C44.0397 14.5961 43.6784 14.4301 43.2389 14.1665C41.3151 13.0336 40.6608 12.6918 40.446 12.6918C40.0651 12.6918 39.6354 12.975 39.4889 13.3461C39.3034 13.7758 39.3815 14.1567 39.7233 14.4692C39.8698 14.6059 41.2272 15.4165 42.7311 16.2856C45.6608 17.9751 45.9635 18.0825 46.442 17.6918C46.7448 17.4575 49.9088 11.9497 49.9674 11.559C50.0651 10.9536 49.5768 10.4458 48.8932 10.4458C48.4245 10.4458 48.2096 10.6411 47.7018 11.5395C47.4479 11.9887 46.9987 12.7602 46.7057 13.2583L46.1686 14.1762L45.7585 13.2583C44.4206 10.2895 42.0377 7.2231 39.4499 5.14302C36.2077 2.52583 32.4674 0.885206 28.317 0.240675C27.3502 0.0941906 23.9225 -0.0327625 23.2877 0.0551281Z" fill="#4C469C"/>
<path d="M3.56278 9.44336C0.340127 10.3223 0.144814 10.4102 0.0373925 11.0059C-0.0895606 11.6504 0.379189 12.207 1.05302 12.207C1.26786 12.207 4.16825 11.4844 5.20341 11.1719C5.34989 11.123 5.33036 11.2109 5.07645 11.6406C3.74833 13.8867 2.69364 17.002 2.28349 19.873C2.05888 21.4551 2.05888 24.3555 2.28349 25.9277C3.24052 32.6172 6.87333 38.3984 12.43 42.0605C14.1097 43.1641 17.0198 44.5312 17.6936 44.5312C18.3479 44.5312 18.8265 43.9746 18.7093 43.3398C18.6214 42.8613 18.3479 42.6465 17.2835 42.2363C12.7034 40.4785 8.65067 36.7676 6.38505 32.2363C3.88505 27.2363 3.49442 21.377 5.3206 16.1133C5.71122 14.9805 6.67802 12.8906 6.80497 12.8906C6.8538 12.8906 7.07841 13.6133 7.31278 14.502C7.77177 16.2305 7.93778 16.5234 8.49442 16.6504C8.90458 16.7383 9.42216 16.4648 9.62724 16.0449L9.79325 15.6934L8.98271 12.6562C8.11356 9.375 7.93778 8.86719 7.63505 8.70117C7.25419 8.49609 6.5706 8.62305 3.56278 9.44336Z" fill="#4C469C"/>
<path d="M22.8878 10.6043C19.8214 11.1121 16.8819 12.9188 14.9581 15.4774C14.255 16.4149 13.2491 18.4852 12.9464 19.6277C10.837 27.6063 16.7452 35.3602 24.9483 35.3797C28.4151 35.3895 31.3643 34.1688 33.8351 31.6883C35.6319 29.8914 36.7257 27.8602 37.2726 25.2918C37.5069 24.159 37.5167 21.6688 37.2726 20.536C37.0186 19.3445 36.6573 18.3289 36.0714 17.1863C34.2745 13.6805 30.9054 11.2195 27.0186 10.5945C25.9249 10.4188 23.962 10.4188 22.8878 10.6043ZM27.5558 12.8309C29.3526 13.2899 31.0616 14.2762 32.3897 15.6043C37.0089 20.2625 36.1983 27.9871 30.7003 31.6004C29.6944 32.2645 28.8155 32.6551 27.6339 32.9871C26.794 33.2215 26.5499 33.2508 24.9972 33.2508C23.4444 33.2508 23.2003 33.2215 22.3604 32.9871C18.0929 31.7957 15.1534 28.3582 14.6456 23.9442C14.4991 22.743 14.6358 21.2977 14.9972 20.0574C16.13 16.1414 19.4308 13.241 23.4933 12.5965C24.4991 12.4403 26.4913 12.5574 27.5558 12.8309Z" fill="#4C469C"/>
<path d="M24.5404 14.7057C24.1302 14.9108 23.9252 15.3698 23.9252 16.0924V16.6881L23.3978 16.8346C22.8021 17.0104 22.0306 17.5475 21.5912 18.1041C20.6244 19.3151 20.6244 21.3073 21.5912 22.5182C22.0209 23.0553 22.7924 23.6022 23.3685 23.778C23.6615 23.8658 24.2474 23.9244 24.8041 23.9244C25.8978 23.9244 26.4545 24.1393 26.8353 24.7057C27.1283 25.1451 27.1088 25.9752 26.7767 26.4342C26.3763 27.0006 26.1224 27.0494 23.8275 27.0494C21.4935 27.0494 21.2299 27.108 20.9564 27.6842C20.7611 28.0846 20.7611 28.1627 20.9564 28.5631C21.1908 29.0709 21.5814 29.1979 22.8412 29.1979H23.9252V29.735C23.9252 30.4283 24.1205 30.9069 24.5013 31.0924C24.8724 31.2877 25.1263 31.2877 25.4974 31.0924C25.8783 30.8971 26.0736 30.4283 26.0736 29.6959C26.0736 29.1198 26.0736 29.1198 26.3959 29.0514C27.7045 28.7682 28.808 27.5768 29.1009 26.151C29.4134 24.6178 28.5638 22.9772 27.0892 22.2545C26.5131 21.9713 26.3568 21.942 25.1947 21.8834C24.1302 21.8248 23.8861 21.7858 23.6615 21.6198C22.7045 20.9069 22.7045 19.7155 23.6615 19.0026C23.9154 18.8073 24.1009 18.7975 26.2006 18.7487C28.7005 18.6901 28.8275 18.6705 29.0619 18.0944C29.2474 17.6744 29.1107 17.1862 28.7396 16.8932C28.515 16.7174 28.3392 16.6979 27.2845 16.6979H26.0736V16.1022C26.0736 15.36 25.8685 14.9108 25.4388 14.7057C25.0384 14.5104 24.931 14.5104 24.5404 14.7057Z" fill="#4C469C"/>
<path d="M46.3281 22.0594C45.9375 22.3035 45.8008 22.6942 45.8008 23.6414C45.8008 24.0613 45.7324 24.9207 45.6543 25.5555C44.502 34.5008 37.6953 41.7078 28.7988 43.3973C28.3887 43.4754 27.7246 43.5731 27.334 43.6121L26.6113 43.6805L27.8418 42.4207C29.1895 41.034 29.3262 40.7801 29.043 40.1844C28.8477 39.7742 28.3301 39.5106 27.9004 39.6082C27.666 39.6571 27.0508 40.2039 25.4102 41.8348C24.209 43.0164 23.1641 44.1102 23.0859 44.2567C23.0078 44.4031 22.9492 44.6863 22.9492 44.8914C22.9492 45.2332 23.0664 45.3699 25.1758 47.4891C26.3965 48.7196 27.5098 49.784 27.6562 49.8621C28.0176 50.0477 28.3105 50.0379 28.6719 49.8133C29.0625 49.5789 29.248 49.0711 29.1016 48.6707C29.043 48.5145 28.418 47.8016 27.7051 47.0887C27.002 46.3856 26.4746 45.7996 26.5332 45.7996C26.9434 45.7996 29.1309 45.4578 30.0586 45.2528C36.6016 43.7879 42.3535 39.3153 45.3906 33.3289C46.8555 30.4383 47.6074 27.6844 47.8613 24.3446C47.9785 22.7137 47.9102 22.3621 47.4219 22.0594C47.041 21.825 46.709 21.825 46.3281 22.0594Z" fill="#4C469C"/>
</svg>
