<svg width="9" height="11" viewBox="0 0 9 11" fill="none" xmlns="http://www.w3.org/2000/svg">
<g clip-path="url(#clip0)">
<path d="M4.50559 0.373056L8.71875 5.53652L8.71875 6.35886L6.18861 6.35901L6.18861 10.6562L2.81361 10.6562L2.81361 6.35922L0.282094 6.35938L0.28271 5.52819L4.50559 0.373056ZM8.03442 5.6714L4.50473 1.3457L0.961031 5.67188L3.37611 5.6717L3.37611 9.96875L5.62611 9.96875L5.62611 5.67155L8.03442 5.6714Z" fill="#4FAE33"/>
</g>
<defs>
<clipPath id="clip0">
<rect width="9" height="11" fill="white" transform="translate(9 11) rotate(-180)"/>
</clipPath>
</defs>
</svg>
