<svg width="14" height="20" viewBox="0 0 14 20" fill="none" xmlns="http://www.w3.org/2000/svg">
<path d="M13.4077 2.43498H11.4593V1.66311C11.4593 1.11593 11.3401 0.70208 11.1019 0.421256C10.8636 0.140588 10.5246 0 10.084 0C9.64363 0 9.30394 0.152907 9.06615 0.458255C8.82787 0.764069 8.70872 1.21527 8.70872 1.812V2.43475H7.00619C6.7141 2.43475 6.4771 2.67167 6.4771 2.96384C6.4771 3.25593 6.7141 3.49282 7.00619 3.49282H8.70872V7.85419C8.16142 7.25733 7.60004 6.92068 7.02444 6.63272C6.44864 6.34476 5.74141 6.20086 4.90295 6.20086C3.45291 6.20086 2.28384 6.70925 1.39571 7.72549C0.507001 8.74212 0.0631714 10.1598 0.0631714 11.9789C0.0631714 12.8391 0.175064 13.6386 0.398928 14.3778C0.622675 15.1171 0.951532 15.76 1.38511 16.3071C1.81857 16.8546 2.33222 17.2756 2.92549 17.5706C3.51899 17.8653 4.16388 18.0128 4.86054 18.0128C5.38651 18.0128 5.87135 17.94 6.31554 17.7943C6.75983 17.6487 7.17185 17.4355 7.55209 17.1546C7.9321 16.874 8.31807 16.5098 8.70868 16.0619V16.3499C8.70868 16.883 8.83843 17.2934 9.09789 17.5812C9.35711 17.869 9.6855 18.0128 10.084 18.0128C10.4893 18.0128 10.8195 17.8745 11.0754 17.5971C11.3313 17.3201 11.4593 16.9042 11.4593 16.3499V3.49309H13.4079C13.7001 3.49309 13.937 3.2562 13.937 2.96411C13.937 2.6719 13.7001 2.43498 13.4077 2.43498ZM7.74702 14.1384C7.49447 14.6894 7.15711 15.0978 6.73414 15.3642C6.31129 15.631 5.8443 15.7642 5.33247 15.7642C4.82771 15.7642 4.36232 15.6237 3.936 15.3429C3.50936 15.0625 3.1738 14.6447 2.92837 14.0903C2.68318 13.5358 2.56045 12.8643 2.56045 12.0755C2.56045 11.3291 2.67578 10.6737 2.90681 10.1087C3.13785 9.5435 3.46277 9.11004 3.88239 8.80805C4.30169 8.50594 4.77788 8.35486 5.31092 8.35486C5.82274 8.35486 6.29355 8.50235 6.72354 8.79733C7.15341 9.09207 7.49447 9.51874 7.74702 10.0766C7.99915 10.6346 8.12543 11.301 8.12543 12.0755C8.12567 12.9003 7.99915 13.5877 7.74702 14.1384ZM11.1682 19.4709C11.1682 19.7631 10.9313 20 10.6391 20H1.32748C1.03539 20 0.79839 19.7631 0.79839 19.4709C0.79839 19.1789 1.03539 18.942 1.32748 18.942H10.6391C10.9313 18.942 11.1682 19.1789 11.1682 19.4709Z" fill="#483FA8"/>
</svg>
